<svg width="457" height="754" xmlns="http://www.w3.org/2000/svg">
 <!--<g id="Background">-->

 <!--	<rect x="-14.8" y="-17.6" fill="#F1F2F2" width="2293.8" height="1903.5"/>-->
 <!--</g>-->
 <g>
  <title>background</title>
  <rect fill="none" id="canvas_background" height="756" width="459" y="-1" x="-1"/>
 </g>
 <g>
  <title>Layer 1</title>
  <path id="svg_1" d="m386.8,196.6c4.9,-23.4 -8,-44.6 -34.6,-56.5c-9.1,-4.1 -16.6,-4.7 -22.7,-4.7c-0.7,0 -1.4,0 -2.1,0l-0.7,0c-4.6,0 -5.6,0 -10.2,-3.9c-5.6,-4.8 -11.9,-9.9 -18.1,-14.9c-7.5,-6 -21.1,-17.1 -24.6,-21.1c-0.1,-0.4 -0.3,-1 -0.5,-1.5c-3,-10.5 -8.8,-21.7 -29.6,-25.8c-8.5,-1.7 -14.3,-3.9 -20,-6c-2.4,-0.9 -4.9,-1.8 -7.5,-2.7c-1.6,-12.8 -5.6,-20.9 -12.4,-25.4c-2.6,-1.7 -5.5,-2.8 -8.6,-3.1c-4.2,-0.4 -8.6,-0.6 -13.3,-0.6c-22,0 -45.4,4.7 -58.9,7.9c-11.5,-11.4 -19.5,-18.1 -29.6,-18.1c-1.5,0 -3,0.2 -4.5,0.5c-17.6,3.9 -18.3,22.2 -16.6,38.2c-72.4,48.5 -62.4,131 -57.5,171.5c2.6,21.4 10.4,43.6 18.7,67.2c9.9,28 20.1,56.9 19.2,81c-0.9,27.2 -17.3,47.3 -27.2,59.4c-3.7,4.5 -6.5,8 -8.5,12c-4.3,8.6 -3,17.6 3.4,24c1.9,1.9 4.3,3.5 6.9,4.4c9.7,3.5 34.2,17 56.3,30c0.3,5.5 -0.4,10.9 -2.5,13.7c-3,3.9 -13.8,10.4 -21,14.7c-14.8,8.9 -27.5,16.6 -31.4,29c-3.4,11.1 0.1,22.6 6.3,32.2c-9.5,7.9 -14.6,16.4 -15.3,25.5c-0.7,9.6 2.6,18.9 9.3,26.1c3.3,3.6 7.4,6.5 12,8.7l0,5.9c0,10.5 8.5,19 19,19l284.4,0c10.5,0 19,-8.5 19,-19l0,-5.9c4.6,-2.2 8.7,-5.2 12,-8.7c6.7,-7.2 10,-16.5 9.3,-26.1c-0.7,-9.1 -5.8,-17.6 -15.3,-25.4c6.2,-9.6 9.7,-21 6.3,-32.2c-3.8,-12.5 -16.6,-20.2 -31.4,-29c-7.2,-4.3 -18,-10.8 -21,-14.7c-2.9,-3.8 -3,-12.2 -2.1,-18.2c7.3,-10.3 27.2,-39.3 41.6,-68.8c20.8,-42.5 10.7,-84.8 -27,-113c-9.4,-7.1 -24.9,-18.2 -39.9,-28.9c-13.3,-9.6 -35.4,-25.4 -52,-37.8c11,1.4 27.6,3.5 36.4,5c0.3,0.9 0.5,1.8 0.7,2.4c1.8,6.6 3.8,14.1 8.7,20.4c4,5.1 11.7,11.3 25.7,11.3c9.5,0 19.7,-3 25.3,-6.2c0.3,-0.1 0.7,-0.3 1.1,-0.4c17.8,-6.2 22.7,-16.8 23.3,-25.6c0.5,-0.1 1.1,-0.2 1.6,-0.4c11.4,-2.8 20.8,-12.8 25.1,-26.7c3.5,-11.3 -0.2,-20.9 -2.9,-27.9c-1.6,-5.1 -2.7,-8.1 -2.1,-10.8z" fill="#D7D6CC"/>
  <path id="svg_7" d="m400.9,221.3c4.9,-23.4 -8,-44.6 -34.6,-56.5c-9.1,-4.1 -16.6,-4.7 -22.7,-4.7c-0.7,0 -1.4,0 -2.1,0l-0.7,0c-4.6,0 -5.6,0 -10.2,-3.9c-5.6,-4.8 -11.9,-9.9 -18.1,-14.9c-7.5,-6 -21.1,-17.1 -24.6,-21.1c-0.1,-0.4 -0.3,-1 -0.5,-1.5c-3,-10.5 -8.8,-21.7 -29.6,-25.8c-8.5,-1.7 -14.3,-3.9 -20,-6c-2.4,-0.9 -4.9,-1.8 -7.5,-2.7c-1.6,-12.8 -5.6,-20.9 -12.4,-25.4c-2.6,-1.7 -5.5,-2.8 -8.6,-3.1c-4.2,-0.4 -8.6,-0.6 -13.3,-0.6c-22,0 -45.4,4.7 -58.9,7.9c-11.5,-11.4 -19.5,-18.1 -29.6,-18.1c-1.5,0 -3,0.2 -4.5,0.5c-17.6,3.9 -18.3,22.2 -16.6,38.2c-72.4,48.5 -62.4,131 -57.5,171.5c2.6,21.4 10.4,43.6 18.7,67.2c9.9,28 20.1,56.9 19.2,81c-0.9,27.2 -17.3,47.3 -27.2,59.4c-3.7,4.5 -6.5,8 -8.5,12c-4.3,8.6 -3,17.6 3.4,24c1.9,1.9 4.3,3.5 6.9,4.4c9.7,3.5 34.2,17 56.3,30c0.3,5.5 -0.4,10.9 -2.5,13.7c-3,3.9 -13.8,10.4 -21,14.7c-14.8,8.9 -27.5,16.6 -31.4,29c-3.4,11.1 0.1,22.6 6.3,32.2c-9.5,7.9 -14.6,16.4 -15.3,25.5c-0.7,9.6 2.6,18.9 9.3,26.1c3.3,3.6 7.4,6.5 12,8.7l0,5.9c0,10.5 8.5,19 19,19l284.4,0c10.5,0 19,-8.5 19,-19l0,-5.9c4.6,-2.2 8.7,-5.2 12,-8.7c6.7,-7.2 10,-16.5 9.3,-26.1c-0.7,-9.1 -5.8,-17.6 -15.3,-25.4c6.2,-9.6 9.7,-21 6.3,-32.2c-3.8,-12.5 -16.6,-20.2 -31.4,-29c-7.2,-4.3 -18,-10.8 -21,-14.7c-2.9,-3.8 -3,-12.2 -2.1,-18.2c7.3,-10.3 27.2,-39.3 41.6,-68.8c20.8,-42.5 10.7,-84.8 -27,-113c-9.4,-7.1 -24.9,-18.2 -39.9,-28.9c-13.3,-9.6 -35.4,-25.4 -52,-37.8c11,1.4 27.6,3.5 36.4,5c0.3,0.9 0.5,1.8 0.7,2.4c1.8,6.6 3.8,14.1 8.7,20.4c4,5.1 11.7,11.3 25.7,11.3c9.5,0 19.7,-3 25.3,-6.2c0.3,-0.1 0.7,-0.3 1.1,-0.4c17.8,-6.2 22.7,-16.8 23.3,-25.6c0.5,-0.1 1.1,-0.2 1.6,-0.4c11.4,-2.8 20.8,-12.8 25.1,-26.7c3.5,-11.3 -0.2,-20.9 -2.9,-27.9c-1.6,-5.1 -2.7,-8.1 -2.1,-10.8z" fill="#8761A9"/>
  <g id="svg_13">
   <g id="svg_14">
    <path id="svg_15" d="m385.5,218.1c3.3,-15.9 -6,-30.1 -25.7,-39c-7.5,-3.4 -13.2,-3.3 -18.2,-3.3c-6.8,0 -12.1,0.1 -21.2,-7.7c-5.4,-4.6 -11.6,-9.6 -17.7,-14.6c-12.2,-9.9 -26.1,-21 -28.5,-25.6c-0.9,-1.6 -1.3,-3.2 -1.8,-5c-1.6,-5.6 -3.4,-11.9 -17.5,-14.7c-9.7,-1.9 -16.5,-4.5 -22.5,-6.7c-4,-1.5 -7.8,-2.9 -11.9,-3.9c-1.3,-0.3 -3.1,-0.7 -5.1,-1c-0.1,-8 -1.1,-21.5 -6.2,-24.9c-0.4,-0.3 -1,-0.5 -1.5,-0.5c-29,-3 -66.7,6.7 -75.4,9.1c-14.8,-15.1 -21.1,-20.8 -25.8,-19.7c-2.9,0.6 -7.3,1.8 -3.2,30.9c-73.2,42.3 -63.8,119.8 -58.8,161.6c2.4,19.7 9.9,41.1 17.9,63.8c10.4,29.4 21.1,59.7 20.1,86.8c-1.1,32.5 -20.3,56 -30.7,68.7c-6.1,7.5 -9.5,11.7 -6.1,15c0.3,0.3 0.8,0.6 1.2,0.8c16.1,5.8 58.2,30.7 65.6,35.1c1,4.8 3.6,22.1 -4.6,32.9c-4.8,6.2 -15.7,12.8 -25.4,18.6c-12,7.2 -22.4,13.5 -24.4,20.2c-3.3,10.8 6.9,24.1 14.9,30.8c-8,4.3 -22.5,13.3 -23.2,23.3c-0.4,5.3 1.4,10.3 5.2,14.3c4,4.2 9.9,7.1 16.2,7.9l0,17.5c0,1.8 1.5,3.3 3.3,3.3l284.4,0c1.8,0 3.3,-1.5 3.3,-3.3l0,-17.5c6.2,-0.8 12.2,-3.6 16.2,-7.9c3.8,-4 5.5,-9 5.2,-14.3c-0.7,-10 -15.2,-19 -23.2,-23.3c8,-6.8 18.2,-20 14.9,-30.8c-2.1,-6.7 -12.4,-13 -24.4,-20.2c-9.7,-5.8 -20.6,-12.4 -25.4,-18.6c-9.3,-12.1 -4.7,-32.6 -4.4,-34c4.2,-5.8 26.7,-37.3 42.3,-69.3c17.5,-35.7 9.3,-69.9 -22.3,-93.6c-9.2,-6.9 -24,-17.5 -39.6,-28.8c-29.4,-21.1 -73.8,-53.1 -76.6,-57.3c0,-2 6.3,-7.5 13.2,-11.7c6.6,0.9 13.4,1.7 20.3,2.6c19.7,2.5 44.3,5.6 47.3,7.1c2.3,1.2 3.9,7.2 5.2,12.1c1.5,5.4 3,11.1 6,14.9c7.3,9.4 26.5,3.8 31.3,0.8c0.6,-0.4 2,-0.9 3.3,-1.3c5.2,-1.8 14.8,-5.1 12.3,-16.2c-1.5,-6.5 -9.8,-12.6 -17.8,-18.5c-3.7,-2.7 -9.2,-6.8 -10.4,-8.7c1.5,-1.6 3.2,-2.3 5.2,-2.4c5.7,-0.2 13.3,4.7 23.2,14.6c5.4,5.4 10.5,5.6 13.7,4.8c7.1,-1.8 11.8,-9.5 13.9,-16.1c1.9,-6.1 -0.3,-11.7 -2.5,-17.7c-2.8,-5.9 -5.1,-12.1 -3.6,-19.4zm-179.6,-140.4c1.4,2.2 2.7,10 2.9,18.2c-15.2,-1.3 -38.3,-0.6 -50.9,7.4c-3.4,-0.8 -12.8,-10 -20.3,-17.5c12.4,-3.2 43.8,-10.3 68.3,-8.1zm-133.4,415.5c-7.8,-4.1 -15.1,-7.8 -20.6,-10c1.1,-1.7 3.2,-4.2 5.1,-6.5c10.8,-13.3 31,-38 32.1,-72.6c1,-28.3 -10,-59.3 -20.5,-89.3c-7.9,-22.3 -15.3,-43.4 -17.6,-62.4c-4.8,-39.9 -13.6,-113.4 53.3,-153.8c1.2,7.5 2.8,16.3 5.1,27.1l0.1,0.4c-0.7,0.8 -2.1,2.1 -3.4,3.4c-10.3,9.7 -34.4,32.5 -35.1,79.1c-0.5,36.3 12,73.1 23,105.5c6.7,19.6 12.9,38 14.8,52.6c5.8,45.5 4.3,104.4 -36.1,126.5c-0.1,-0.2 -0.1,-0.1 -0.2,0zm282.9,192.4l-277.8,0l0,-14l277.9,0l0,14l-0.1,0zm21.4,-35.9c0.3,3.5 -0.9,6.7 -3.4,9.4c-3.5,3.7 -9.1,6 -14.7,6l-284.4,0c-5.6,0 -11.2,-2.3 -14.7,-6c-2.5,-2.7 -3.7,-5.9 -3.4,-9.4c0.5,-6.8 14.6,-15.7 23.8,-19.9l273,0c9.2,4.2 23.3,13.1 23.8,19.9zm-56.8,-89.4c5.5,7.2 16.5,13.9 27.2,20.3c9.5,5.7 20.2,12.2 21.6,16.5c2.5,8.2 -8.8,21.8 -15.9,26.1l-272.7,0c-7.1,-4.3 -18.4,-17.9 -15.9,-26.1c1.3,-4.3 12.1,-10.8 21.6,-16.5c10.7,-6.4 21.7,-13 27.2,-20.3c8.8,-11.5 7.5,-28.1 6.3,-35.7l194.3,0c-1.2,7.6 -2.5,24.2 6.3,35.7zm64.9,-307c-1.9,6.1 -5.6,10.8 -9.2,11.7c-2.3,0.6 -4.9,-0.4 -7.5,-3.1c-7.3,-7.3 -18.4,-17.1 -28.1,-16.6c-4.1,0.2 -7.6,1.9 -10.4,5.3c-1,1.2 -1.4,2.6 -1.2,4.1c0.5,4.1 5.1,7.7 13.2,13.6c6,4.5 14.3,10.6 15.3,14.7c1,4.5 -1.2,6.1 -8,8.5c-1.8,0.6 -3.3,1.2 -4.6,1.9c-3.7,2.3 -18.7,5.9 -22.7,0.8c-2.2,-2.8 -3.5,-7.8 -4.8,-12.6c-1.9,-7.1 -3.7,-13.8 -8.6,-16.3c-3.5,-1.8 -17.7,-3.7 -49.4,-7.7c-22.3,-2.8 -45.4,-5.8 -55.6,-8.1c-20.2,-4.7 -43.6,-13.6 -45.9,-41.4c-0.2,-1.8 -1.8,-3.2 -3.5,-3c-1.8,0.2 -3.2,1.7 -3,3.5c2.7,32.5 30.4,42.5 51,47.3c5.7,1.3 15.2,2.8 26.2,4.3c-5.6,4.2 -11.2,9.8 -9.8,14.7c1.2,4.1 16.7,16 79.1,60.9c15.6,11.2 30.4,21.8 39.5,28.7c29.3,22 36.5,52.3 20.4,85.5c-15,30.8 -36.6,61.3 -41.4,68l-199.6,0c-3.9,-2.3 -20.6,-12.3 -37.2,-21.3c32.1,-19.9 44.7,-65.1 36.3,-131.1c-2,-15.2 -8.3,-34 -15.1,-53.9c-10.9,-31.9 -23.2,-68.1 -22.7,-103.3c0.6,-43.8 23.3,-65.2 33,-74.4c4.1,-3.8 6.1,-5.7 5.5,-8.5l-0.3,-1.4c-2.8,-13.2 -4.6,-23.5 -5.8,-31.4c0,0 0,0 0,0c-2.6,-17.2 -2.1,-23.3 -1.6,-25.4c4,2.1 13.8,12.1 20.6,19c17.2,17.5 25.3,24.9 30.8,23.3c0.3,-0.1 0.6,-0.2 0.9,-0.4c14.8,-10.1 49.2,-7.5 58.1,-5.3c3.7,0.9 7.2,2.2 11.2,3.7c6.2,2.3 13.3,5 23.5,7c10.2,2 11.1,5.2 12.5,10.1c0.5,1.9 1.2,4.1 2.4,6.3c2.8,5.3 13.3,13.9 30.1,27.6c6.1,4.9 12.2,9.9 17.6,14.4c11,9.5 18.4,9.4 25.6,9.3c4.8,-0.1 9.3,-0.1 15.5,2.7c7.9,3.5 25.7,13.7 22,31.6c-1.9,9.2 0.9,16.6 3.4,23.2c1.8,5.2 3.5,9.6 2.3,13.5z" fill="#FFFFFF"/>
    <path id="svg_16" d="m305.1,555.8l-172.5,0c-1.8,0 -3.3,1.5 -3.3,3.3c0,1.8 1.5,3.3 3.3,3.3l172.5,0c1.8,0 3.3,-1.5 3.3,-3.3c0,-1.8 -1.5,-3.3 -3.3,-3.3z" fill="#FFFFFF"/>
    <path id="svg_17" d="m76.9,147.1c1.8,-3.7 -3.9,-6.3 -5.7,-2.7c-23.8,49.5 -20.3,105.3 -1.3,155.8c1.4,3.7 7.5,1.5 6.1,-2.2c-18.5,-48.9 -22.1,-103 0.9,-150.9z" fill="#FFFFFF"/>
    <path id="svg_18" d="m81.5,314c-4.1,0 -3.8,6.1 0.3,6.1c4.1,0 3.9,-6.1 -0.3,-6.1z" fill="#FFFFFF"/>
    <path id="svg_19" d="m231.7,243c-21.3,-3.6 -45.1,-5.2 -55.5,-27.3c-1.7,-3.6 -7.7,-1.3 -6,2.3c11.2,23.9 36.5,27.9 60.3,30.9c3.4,0.5 4.8,-5.3 1.2,-5.9z" fill="#FFFFFF"/>
    <path id="svg_20" d="m242.4,243.4c-4.1,0 -3.6,6.1 0.6,6.1c4,0 3.5,-6.1 -0.6,-6.1z" fill="#FFFFFF"/>
    <path id="svg_21" d="m372.3,210.3c-0.5,-9.5 -7.5,-17.7 -16.6,-19.9c-3.9,-0.9 -5.6,5 -1.5,6c7.1,1.7 11.2,8.2 11.8,15.1c0.4,3.9 6.5,2.6 6.3,-1.2z" fill="#FFFFFF"/>
    <path id="svg_22" d="m371.7,218.2c-4,0 -4.8,6.2 -0.6,6.2c4,0 4.7,-6.2 0.6,-6.2z" fill="#FFFFFF"/>
    <path id="svg_23" d="m348.4,397.8c6.7,12.1 2.3,27.5 -0.9,39.9c-1,3.9 5.1,5.6 6.1,1.9c3.2,-12.3 5.6,-23.9 3.5,-36.6c-1.9,-11.2 -11.3,-19.8 -18.2,-28.1c-2.5,-3 -7.7,0.6 -5.1,3.7c5.2,6.3 10.7,12 14.6,19.2z" fill="#FFFFFF"/>
    <path id="svg_24" d="m348.7,449.3c-4,0 -5,6.2 -0.8,6.2c4.1,-0.1 5,-6.2 0.8,-6.2z" fill="#FFFFFF"/>
    <path id="svg_25" d="m103.4,578.6c-7.2,4.5 -15.1,7.8 -22.3,12.4c-4.7,2.9 -8.4,7.6 -6.4,13.3c1.3,3.6 7.5,2.3 6.3,-1.4c-2,-6.1 7.7,-9.4 11.9,-11.5c4.8,-2.5 9.6,-4.9 14.1,-7.7c3.6,-2.4 -0.2,-7.3 -3.6,-5.1z" fill="#FFFFFF"/>
    <path id="svg_26" d="m83.3,610.3c-4.1,0 -4.2,6.1 0,6.1c4.1,0 4.2,-6.1 0,-6.1z" fill="#FFFFFF"/>
    <path id="svg_27" d="m72.6,639.1c-5.3,2.7 -9.9,7.2 -9.5,13.5c0.3,3.9 6.5,3 6.4,-0.8c-0.1,-3.6 3,-5.8 5.9,-7.3c3.7,-1.9 0.9,-7.3 -2.8,-5.4z" fill="#FFFFFF"/>
    <path id="svg_28" d="m75.3,656.3c-4.1,0 -4.4,6 -0.3,6c4.1,0 4.3,-6 0.3,-6z" fill="#FFFFFF"/>
   </g>
   <path id="svg_29" d="m385.5,218.1c3.3,-15.9 -6,-30.1 -25.7,-39c-7.5,-3.4 -13.2,-3.3 -18.2,-3.3c-6.8,0 -12.1,0.1 -21.2,-7.7c-5.4,-4.6 -11.6,-9.6 -17.7,-14.6c-12.2,-9.9 -26.1,-21 -28.5,-25.6c-0.9,-1.6 -1.3,-3.2 -1.8,-5c-1.6,-5.6 -3.4,-11.9 -17.5,-14.7c-9.7,-1.9 -16.5,-4.5 -22.5,-6.7c-4,-1.5 -7.8,-2.9 -11.9,-3.9c-1.3,-0.3 -3.1,-0.7 -5.1,-1c-0.1,-8 -1.1,-21.5 -6.2,-24.9c-0.4,-0.3 -1,-0.5 -1.5,-0.5c-29,-3 -66.7,6.7 -75.4,9.1c-14.8,-15.1 -21.1,-20.8 -25.8,-19.7c-2.9,0.6 -7.3,1.8 -3.2,30.9c-73.2,42.3 -63.8,119.8 -58.8,161.6c2.4,19.7 9.9,41.1 17.9,63.8c10.4,29.4 21.1,59.7 20.1,86.8c-1.1,32.5 -20.3,56 -30.7,68.7c-6.1,7.5 -9.5,11.7 -6.1,15c0.3,0.3 0.8,0.6 1.2,0.8c16.1,5.8 58.2,30.7 65.6,35.1c1,4.8 3.6,22.1 -4.6,32.9c-4.8,6.2 -15.7,12.8 -25.4,18.6c-12,7.2 -22.4,13.5 -24.4,20.2c-3.3,10.8 6.9,24.1 14.9,30.8c-8,4.3 -22.5,13.3 -23.2,23.3c-0.4,5.3 1.4,10.3 5.2,14.3c4,4.2 9.9,7.1 16.2,7.9l0,17.5c0,1.8 1.5,3.3 3.3,3.3l284.4,0c1.8,0 3.3,-1.5 3.3,-3.3l0,-17.5c6.2,-0.8 12.2,-3.6 16.2,-7.9c3.8,-4 5.5,-9 5.2,-14.3c-0.7,-10 -15.2,-19 -23.2,-23.3c8,-6.8 18.2,-20 14.9,-30.8c-2.1,-6.7 -12.4,-13 -24.4,-20.2c-9.7,-5.8 -20.6,-12.4 -25.4,-18.6c-9.3,-12.1 -4.7,-32.6 -4.4,-34c4.2,-5.8 26.7,-37.3 42.3,-69.3c17.5,-35.7 9.3,-69.9 -22.3,-93.6c-9.2,-6.9 -24,-17.5 -39.6,-28.8c-29.4,-21.1 -73.8,-53.1 -76.6,-57.3c0,-2 6.3,-7.5 13.2,-11.7c6.6,0.9 13.4,1.7 20.3,2.6c19.7,2.5 44.3,5.6 47.3,7.1c2.3,1.2 3.9,7.2 5.2,12.1c1.5,5.4 3,11.1 6,14.9c7.3,9.4 26.5,3.8 31.3,0.8c0.6,-0.4 2,-0.9 3.3,-1.3c5.2,-1.8 14.8,-5.1 12.3,-16.2c-1.5,-6.5 -9.8,-12.6 -17.8,-18.5c-3.7,-2.7 -9.2,-6.8 -10.4,-8.7c1.5,-1.6 3.2,-2.3 5.2,-2.4c5.7,-0.2 13.3,4.7 23.2,14.6c5.4,5.4 10.5,5.6 13.7,4.8c7.1,-1.8 11.8,-9.5 13.9,-16.1c1.9,-6.1 -0.3,-11.7 -2.5,-17.7c-2.8,-5.9 -5.1,-12.1 -3.6,-19.4zm-179.6,-140.4c1.4,2.2 2.7,10 2.9,18.2c-15.2,-1.3 -38.3,-0.6 -50.9,7.4c-3.4,-0.8 -12.8,-10 -20.3,-17.5c12.4,-3.2 43.8,-10.3 68.3,-8.1zm-133.4,415.5c-7.8,-4.1 -15.1,-7.8 -20.6,-10c1.1,-1.7 3.2,-4.2 5.1,-6.5c10.8,-13.3 31,-38 32.1,-72.6c1,-28.3 -10,-59.3 -20.5,-89.3c-7.9,-22.3 -15.3,-43.4 -17.6,-62.4c-4.8,-39.9 -13.6,-113.4 53.3,-153.8c1.2,7.5 2.8,16.3 5.1,27.1l0.1,0.4c-0.7,0.8 -2.1,2.1 -3.4,3.4c-10.3,9.7 -34.4,32.5 -35.1,79.1c-0.5,36.3 12,73.1 23,105.5c6.7,19.6 12.9,38 14.8,52.6c5.8,45.5 4.3,104.4 -36.1,126.5c-0.1,-0.2 -0.1,-0.1 -0.2,0zm282.9,192.4l-277.8,0l0,-14l277.9,0l0,14l-0.1,0zm21.4,-35.9c0.3,3.5 -0.9,6.7 -3.4,9.4c-3.5,3.7 -9.1,6 -14.7,6l-284.4,0c-5.6,0 -11.2,-2.3 -14.7,-6c-2.5,-2.7 -3.7,-5.9 -3.4,-9.4c0.5,-6.8 14.6,-15.7 23.8,-19.9l273,0c9.2,4.2 23.3,13.1 23.8,19.9zm-56.8,-89.4c5.5,7.2 16.5,13.9 27.2,20.3c9.5,5.7 20.2,12.2 21.6,16.5c2.5,8.2 -8.8,21.8 -15.9,26.1l-272.7,0c-7.1,-4.3 -18.4,-17.9 -15.9,-26.1c1.3,-4.3 12.1,-10.8 21.6,-16.5c10.7,-6.4 21.7,-13 27.2,-20.3c8.8,-11.5 7.5,-28.1 6.3,-35.7l194.3,0c-1.2,7.6 -2.5,24.2 6.3,35.7zm64.9,-307c-1.9,6.1 -5.6,10.8 -9.2,11.7c-2.3,0.6 -4.9,-0.4 -7.5,-3.1c-7.3,-7.3 -18.4,-17.1 -28.1,-16.6c-4.1,0.2 -7.6,1.9 -10.4,5.3c-1,1.2 -1.4,2.6 -1.2,4.1c0.5,4.1 5.1,7.7 13.2,13.6c6,4.5 14.3,10.6 15.3,14.7c1,4.5 -1.2,6.1 -8,8.5c-1.8,0.6 -3.3,1.2 -4.6,1.9c-3.7,2.3 -18.7,5.9 -22.7,0.8c-2.2,-2.8 -3.5,-7.8 -4.8,-12.6c-1.9,-7.1 -3.7,-13.8 -8.6,-16.3c-3.5,-1.8 -17.7,-3.7 -49.4,-7.7c-22.3,-2.8 -45.4,-5.8 -55.6,-8.1c-20.2,-4.7 -43.6,-13.6 -45.9,-41.4c-0.2,-1.8 -1.8,-3.2 -3.5,-3c-1.8,0.2 -3.2,1.7 -3,3.5c2.7,32.5 30.4,42.5 51,47.3c5.7,1.3 15.2,2.8 26.2,4.3c-5.6,4.2 -11.2,9.8 -9.8,14.7c1.2,4.1 16.7,16 79.1,60.9c15.6,11.2 30.4,21.8 39.5,28.7c29.3,22 36.5,52.3 20.4,85.5c-15,30.8 -36.6,61.3 -41.4,68l-199.6,0c-3.9,-2.3 -20.6,-12.3 -37.2,-21.3c32.1,-19.9 44.7,-65.1 36.3,-131.1c-2,-15.2 -8.3,-34 -15.1,-53.9c-10.9,-31.9 -23.2,-68.1 -22.7,-103.3c0.6,-43.8 23.3,-65.2 33,-74.4c4.1,-3.8 6.1,-5.7 5.5,-8.5l-0.3,-1.4c-2.8,-13.2 -4.6,-23.5 -5.8,-31.4c0,0 0,0 0,0c-2.6,-17.2 -2.1,-23.3 -1.6,-25.4c4,2.1 13.8,12.1 20.6,19c17.2,17.5 25.3,24.9 30.8,23.3c0.3,-0.1 0.6,-0.2 0.9,-0.4c14.8,-10.1 49.2,-7.5 58.1,-5.3c3.7,0.9 7.2,2.2 11.2,3.7c6.2,2.3 13.3,5 23.5,7c10.2,2 11.1,5.2 12.5,10.1c0.5,1.9 1.2,4.1 2.4,6.3c2.8,5.3 13.3,13.9 30.1,27.6c6.1,4.9 12.2,9.9 17.6,14.4c11,9.5 18.4,9.4 25.6,9.3c4.8,-0.1 9.3,-0.1 15.5,2.7c7.9,3.5 25.7,13.7 22,31.6c-1.9,9.2 0.9,16.6 3.4,23.2c1.8,5.2 3.5,9.6 2.3,13.5z" fill="#FFFFFF"/>
   <path id="svg_30" d="m305.1,555.8l-172.5,0c-1.8,0 -3.3,1.5 -3.3,3.3c0,1.8 1.5,3.3 3.3,3.3l172.5,0c1.8,0 3.3,-1.5 3.3,-3.3c0,-1.8 -1.5,-3.3 -3.3,-3.3z" fill="#FFFFFF"/>
   <path id="svg_31" d="m76.9,147.1c1.8,-3.7 -3.9,-6.3 -5.7,-2.7c-23.8,49.5 -20.3,105.3 -1.3,155.8c1.4,3.7 7.5,1.5 6.1,-2.2c-18.5,-48.9 -22.1,-103 0.9,-150.9z" fill="#FFFFFF"/>
   <path id="svg_32" d="m81.5,314c-4.1,0 -3.8,6.1 0.3,6.1c4.1,0 3.9,-6.1 -0.3,-6.1z" fill="#FFFFFF"/>
   <path id="svg_33" d="m231.7,243c-21.3,-3.6 -45.1,-5.2 -55.5,-27.3c-1.7,-3.6 -7.7,-1.3 -6,2.3c11.2,23.9 36.5,27.9 60.3,30.9c3.4,0.5 4.8,-5.3 1.2,-5.9z" fill="#FFFFFF"/>
   <path id="svg_34" d="m242.4,243.4c-4.1,0 -3.6,6.1 0.6,6.1c4,0 3.5,-6.1 -0.6,-6.1z" fill="#FFFFFF"/>
   <path id="svg_35" d="m372.3,210.3c-0.5,-9.5 -7.5,-17.7 -16.6,-19.9c-3.9,-0.9 -5.6,5 -1.5,6c7.1,1.7 11.2,8.2 11.8,15.1c0.4,3.9 6.5,2.6 6.3,-1.2z" fill="#FFFFFF"/>
   <path id="svg_36" d="m371.7,218.2c-4,0 -4.8,6.2 -0.6,6.2c4,0 4.7,-6.2 0.6,-6.2z" fill="#FFFFFF"/>
   <path id="svg_37" d="m348.4,397.8c6.7,12.1 2.3,27.5 -0.9,39.9c-1,3.9 5.1,5.6 6.1,1.9c3.2,-12.3 5.6,-23.9 3.5,-36.6c-1.9,-11.2 -11.3,-19.8 -18.2,-28.1c-2.5,-3 -7.7,0.6 -5.1,3.7c5.2,6.3 10.7,12 14.6,19.2z" fill="#FFFFFF"/>
   <path id="svg_38" d="m348.7,449.3c-4,0 -5,6.2 -0.8,6.2c4.1,-0.1 5,-6.2 0.8,-6.2z" fill="#FFFFFF"/>
   <path id="svg_39" d="m103.4,578.6c-7.2,4.5 -15.1,7.8 -22.3,12.4c-4.7,2.9 -8.4,7.6 -6.4,13.3c1.3,3.6 7.5,2.3 6.3,-1.4c-2,-6.1 7.7,-9.4 11.9,-11.5c4.8,-2.5 9.6,-4.9 14.1,-7.7c3.6,-2.4 -0.2,-7.3 -3.6,-5.1z" fill="#FFFFFF"/>
   <path id="svg_40" d="m83.3,610.3c-4.1,0 -4.2,6.1 0,6.1c4.1,0 4.2,-6.1 0,-6.1z" fill="#FFFFFF"/>
   <path id="svg_41" d="m72.6,639.1c-5.3,2.7 -9.9,7.2 -9.5,13.5c0.3,3.9 6.5,3 6.4,-0.8c-0.1,-3.6 3,-5.8 5.9,-7.3c3.7,-1.9 0.9,-7.3 -2.8,-5.4z" fill="#FFFFFF"/>
   <path id="svg_42" d="m75.3,656.3c-4.1,0 -4.4,6 -0.3,6c4.1,0 4.3,-6 0.3,-6z" fill="#FFFFFF"/>
  </g>
 </g>
</svg>